2nd lab/pictures/ALL0005/F0005CH2.CSV

Record Length,2.500000e+03,,  -0.000000065000,  -2.48000,
Sample Interval,1.000000e-10,,  -0.000000064900,  -2.48000,
Trigger Point,6.500000000000e+02,,  -0.000000064800,  -2.48000,
,,,  -0.000000064700,  -2.48000,
,,,  -0.000000064600,  -2.48000,
,,,  -0.000000064500,  -2.48000,
Source,CH2,,  -0.000000064400,  -2.48000,
Vertical Units,V,,  -0.000000064300,  -2.48000,
Vertical Scale,1.000000e+00,,  -0.000000064200,  -2.48000,
Vertical Offset,-4.000000e-02,,  -0.000000064100,  -2.48000,
Horizontal Units,s,,  -0.000000064000,  -2.48000,
Horizontal Scale,2.500000e-08,,  -0.000000063900,  -2.48000,
Pt Fmt,Y,,  -0.000000063800,  -2.48000,
Yzero,0.000000e+00,,  -0.000000063700,  -2.48000,
Probe Atten,1.000000e+01,,  -0.000000063600,  -2.48000,
Model Number,TBS1072B-EDU,,  -0.000000063500,  -2.48000,
Serial Number,C014103,,  -0.000000063400,  -2.48000,
Firmware Version,FV:v4.06,,  -0.000000063300,  -2.48000,
,,,-00.000000063200,  -2.48000,
,,,-00.000000063100,  -2.48000,
,,,-00.000000063000,  -2.48000,
,,,-00.000000062900,  -2.48000,
,,,-00.000000062800,  -2.48000,
,,,-00.000000062700,  -2.48000,
,,,-00.000000062600,  -2.48000,
,,,-00.000000062500,  -2.48000,
,,,-00.000000062400,  -2.48000,
,,,-00.000000062300,  -2.48000,
,,,-00.000000062200,  -2.48000,
,,,-00.000000062100,  -2.48000,
,,,-00.000000062000,  -2.48000,
,,,-00.000000061900,  -2.48000,
,,,-00.000000061800,  -2.48000,
,,,-00.000000061700,  -2.48000,
,,,-00.000000061600,  -2.48000,
,,,-00.000000061500,  -2.48000,
,,,-00.000000061400,  -2.48000,
,,,-00.000000061300,  -2.48000,
,,,-00.000000061200,  -2.48000,
,,,-00.000000061100,  -2.48000,
,,,-00.000000061000,  -2.48000,
,,,-00.000000060900,  -2.48000,
,,,-00.000000060800,  -2.48000,
,,,-00.000000060700,  -2.48000,
,,,-00.000000060600,  -2.48000,
,,,-00.000000060500,  -2.48000,
,,,-00.000000060400,  -2.48000,
,,,-00.000000060300,  -2.48000,
,,,-00.000000060200,  -2.48000,
,,,-00.000000060100,  -2.48000,
,,,-00.000000060000,  -2.48000,
,,,-00.000000059900,  -2.48000,
,,,-00.000000059800,  -2.48000,
,,,-00.000000059700,  -2.48000,
,,,-00.000000059600,  -2.48000,
,,,-00.000000059500,  -2.48000,
,,,-00.000000059400,  -2.48000,
,,,-00.000000059300,  -2.48000,
,,,-00.000000059200,  -2.48000,
,,,-00.000000059100,  -2.48000,
,,,-00.000000059000,  -2.48000,
,,,-00.000000058900,  -2.48000,
,,,-00.000000058800,  -2.48000,
,,,-00.000000058700,  -2.48000,
,,,-00.000000058600,  -2.48000,
,,,-00.000000058500,  -2.48000,
,,,-00.000000058400,  -2.48000,
,,,-00.000000058300,  -2.48000,
,,,-00.000000058200,  -2.48000,
,,,-00.000000058100,  -2.48000,
,,,-00.000000058000,  -2.48000,
,,,-00.000000057900,  -2.48000,
,,,-00.000000057800,  -2.48000,
,,,-00.000000057700,  -2.48000,
,,,-00.000000057600,  -2.48000,
,,,-00.000000057500,  -2.48000,
,,,-00.000000057400,  -2.48000,
,,,-00.000000057300,  -2.48000,
,,,-00.000000057200,  -2.48000,
,,,-00.000000057100,  -2.48000,
,,,-00.000000057000,  -2.48000,
,,,-00.000000056900,  -2.48000,
,,,-00.000000056800,  -2.48000,
,,,-00.000000056700,  -2.48000,
,,,-00.000000056600,  -2.48000,
,,,-00.000000056500,  -2.48000,
,,,-00.000000056400,  -2.48000,
,,,-00.000000056300,  -2.48000,
,,,-00.000000056200,  -2.48000,
,,,-00.000000056100,  -2.48000,
,,,-00.000000056000,  -2.48000,
,,,-00.000000055900,  -2.48000,
,,,-00.000000055800,  -2.48000,
,,,-00.000000055700,  -2.48000,
,,,-00.000000055600,  -2.48000,
,,,-00.000000055500,  -2.48000,
,,,-00.000000055400,  -2.48000,
,,,-00.000000055300,  -2.48000,
,,,-00.000000055200,  -2.48000,
,,,-00.000000055100,  -2.48000,
,,,-00.000000055000,  -2.48000,
,,,-00.000000054900,  -2.48000,
,,,-00.000000054800,  -2.48000,
,,,-00.000000054700,  -2.48000,
,,,-00.000000054600,  -2.48000,
,,,-00.000000054500,  -2.48000,
,,,-00.000000054400,  -2.48000,
,,,-00.000000054300,  -2.48000,
,,,-00.000000054200,  -2.48000,
,,,-00.000000054100,  -2.48000,
,,,-00.000000054000,  -2.48000,
,,,-00.000000053900,  -2.48000,
,,,-00.000000053800,  -2.48000,
,,,-00.000000053700,  -2.48000,
,,,-00.000000053600,  -2.48000,
,,,-00.000000053500,  -2.48000,
,,,-00.000000053400,  -2.48000,
,,,-00.000000053300,  -2.48000,
,,,-00.000000053200,  -2.48000,
,,,-00.000000053100,  -2.48000,
,,,-00.000000053000,  -2.48000,
,,,-00.000000052900,  -2.48000,
,,,-00.000000052800,  -2.48000,
,,,-00.000000052700,  -2.48000,
,,,-00.000000052600,  -2.48000,
,,,-00.000000052500,  -2.48000,
,,,-00.000000052400,  -2.48000,
,,,-00.000000052300,  -2.48000,
,,,-00.000000052200,  -2.48000,
,,,-00.000000052100,  -2.48000,
,,,-00.000000052000,  -2.48000,
,,,-00.000000051900,  -2.44000,
,,,-00.000000051800,  -2.48000,
,,,-00.000000051700,  -2.48000,
,,,-00.000000051600,  -2.48000,
,,,-00.000000051500,  -2.48000,
,,,-00.000000051400,  -2.48000,
,,,-00.000000051300,  -2.48000,
,,,-00.000000051200,  -2.48000,
,,,-00.000000051100,  -2.48000,
,,,-00.000000051000,  -2.48000,
,,,-00.000000050900,  -2.48000,
,,,-00.000000050800,  -2.48000,
,,,-00.000000050700,  -2.48000,
,,,-00.000000050600,  -2.48000,
,,,-00.000000050500,  -2.48000,
,,,-00.000000050400,  -2.48000,
,,,-00.000000050300,  -2.48000,
,,,-00.000000050200,  -2.48000,
,,,-00.000000050100,  -2.48000,
,,,-00.000000050000,  -2.48000,
,,,-00.000000049900,  -2.48000,
,,,-00.000000049800,  -2.48000,
,,,-00.000000049700,  -2.48000,
,,,-00.000000049600,  -2.48000,
,,,-00.000000049500,  -2.48000,
,,,-00.000000049400,  -2.48000,
,,,-00.000000049300,  -2.48000,
,,,-00.000000049200,  -2.48000,
,,,-00.000000049100,  -2.48000,
,,,-00.000000049000,  -2.48000,
,,,-00.000000048900,  -2.48000,
,,,-00.000000048800,  -2.48000,
,,,-00.000000048700,  -2.48000,
,,,-00.000000048600,  -2.48000,
,,,-00.000000048500,  -2.48000,
,,,-00.000000048400,  -2.48000,
,,,-00.000000048300,  -2.48000,
,,,-00.000000048200,  -2.48000,
,,,-00.000000048100,  -2.48000,
,,,-00.000000048000,  -2.48000,
,,,-00.000000047900,  -2.48000,
,,,-00.000000047800,  -2.48000,
,,,-00.000000047700,  -2.48000,
,,,-00.000000047600,  -2.48000,
,,,-00.000000047500,  -2.48000,
,,,-00.000000047400,  -2.48000,
,,,-00.000000047300,  -2.48000,
,,,-00.000000047200,  -2.48000,
,,,-00.000000047100,  -2.48000,
,,,-00.000000047000,  -2.48000,
,,,-00.000000046900,  -2.48000,
,,,-00.000000046800,  -2.48000,
,,,-00.000000046700,  -2.48000,
,,,-00.000000046600,  -2.48000,
,,,-00.000000046500,  -2.48000,
,,,-00.000000046400,  -2.48000,
,,,-00.000000046300,  -2.48000,
,,,-00.000000046200,  -2.48000,
,,,-00.000000046100,  -2.48000,
,,,-00.000000046000,  -2.48000,
,,,-00.000000045900,  -2.48000,
,,,-00.000000045800,  -2.48000,
,,,-00.000000045700,  -2.48000,
,,,-00.000000045600,  -2.48000,
,,,-00.000000045500,  -2.48000,
,,,-00.000000045400,  -2.48000,
,,,-00.000000045300,  -2.48000,
,,,-00.000000045200,  -2.48000,
,,,-00.000000045100,  -2.48000,
,,,-00.000000045000,  -2.48000,
,,,-00.000000044900,  -2.48000,
,,,-00.000000044800,  -2.48000,
,,,-00.000000044700,  -2.48000,
,,,-00.000000044600,  -2.48000,
,,,-00.000000044500,  -2.48000,
,,,-00.000000044400,  -2.48000,
,,,-00.000000044300,  -2.48000,
,,,-00.000000044200,  -2.48000,
,,,-00.000000044100,  -2.48000,
,,,-00.000000044000,  -2.48000,
,,,-00.000000043900,  -2.48000,
,,,-00.000000043800,  -2.48000,
,,,-00.000000043700,  -2.48000,
,,,-00.000000043600,  -2.48000,
,,,-00.000000043500,  -2.48000,
,,,-00.000000043400,  -2.48000,
,,,-00.000000043300,  -2.48000,
,,,-00.000000043200,  -2.48000,
,,,-00.000000043100,  -2.48000,
,,,-00.000000043000,  -2.48000,
,,,-00.000000042900,  -2.48000,
,,,-00.000000042800,  -2.48000,
,,,-00.000000042700,  -2.48000,
,,,-00.000000042600,  -2.48000,
,,,-00.000000042500,  -2.48000,
,,,-00.000000042400,  -2.48000,
,,,-00.000000042300,  -2.48000,
,,,-00.000000042200,  -2.48000,
,,,-00.000000042100,  -2.48000,
,,,-00.000000042000,  -2.48000,
,,,-00.000000041900,  -2.48000,
,,,-00.000000041800,  -2.48000,
,,,-00.000000041700,  -2.48000,
,,,-00.000000041600,  -2.48000,
,,,-00.000000041500,  -2.48000,
,,,-00.000000041400,  -2.48000,
,,,-00.000000041300,  -2.48000,
,,,-00.000000041200,  -2.48000,
,,,-00.000000041100,  -2.48000,
,,,-00.000000041000,  -2.48000,
,,,-00.000000040900,  -2.48000,
,,,-00.000000040800,  -2.48000,
,,,-00.000000040700,  -2.48000,
,,,-00.000000040600,  -2.48000,
,,,-00.000000040500,  -2.48000,
,,,-00.000000040400,  -2.48000,
,,,-00.000000040300,  -2.48000,
,,,-00.000000040200,  -2.48000,
,,,-00.000000040100,  -2.48000,
,,,-00.000000040000,  -2.48000,
,,,-00.000000039900,  -2.48000,
,,,-00.000000039800,  -2.48000,
,,,-00.000000039700,  -2.48000,
,,,-00.000000039600,  -2.48000,
,,,-00.000000039500,  -2.48000,
,,,-00.000000039400,  -2.48000,
,,,-00.000000039300,  -2.48000,
,,,-00.000000039200,  -2.48000,
,,,-00.000000039100,  -2.48000,
,,,-00.000000039000,  -2.48000,
,,,-00.000000038900,  -2.48000,
,,,-00.000000038800,  -2.48000,
,,,-00.000000038700,  -2.48000,
,,,-00.000000038600,  -2.48000,
,,,-00.000000038500,  -2.48000,
,,,-00.000000038400,  -2.48000,
,,,-00.000000038300,  -2.48000,
,,,-00.000000038200,  -2.48000,
,,,-00.000000038100,  -2.48000,
,,,-00.000000038000,  -2.48000,
,,,-00.000000037900,  -2.48000,
,,,-00.000000037800,  -2.48000,
,,,-00.000000037700,  -2.48000,
,,,-00.000000037600,  -2.48000,
,,,-00.000000037500,  -2.48000,
,,,-00.000000037400,  -2.48000,
,,,-00.000000037300,  -2.48000,
,,,-00.000000037200,  -2.48000,
,,,-00.000000037100,  -2.48000,
,,,-00.000000037000,  -2.48000,
,,,-00.000000036900,  -2.48000,
,,,-00.000000036800,  -2.48000,
,,,-00.000000036700,  -2.48000,
,,,-00.000000036600,  -2.48000,
,,,-00.000000036500,  -2.48000,
,,,-00.000000036400,  -2.48000,
,,,-00.000000036300,  -2.48000,
,,,-00.000000036200,  -2.48000,
,,,-00.000000036100,  -2.48000,
,,,-00.000000036000,  -2.48000,
,,,-00.000000035900,  -2.48000,
,,,-00.000000035800,  -2.48000,
,,,-00.000000035700,  -2.48000,
,,,-00.000000035600,  -2.48000,
,,,-00.000000035500,  -2.48000,
,,,-00.000000035400,  -2.48000,
,,,-00.000000035300,  -2.48000,
,,,-00.000000035200,  -2.48000,
,,,-00.000000035100,  -2.48000,
,,,-00.000000035000,  -2.48000,
,,,-00.000000034900,  -2.48000,
,,,-00.000000034800,  -2.48000,
,,,-00.000000034700,  -2.48000,
,,,-00.000000034600,  -2.48000,
,,,-00.000000034500,  -2.48000,
,,,-00.000000034400,  -2.48000,
,,,-00.000000034300,  -2.48000,
,,,-00.000000034200,  -2.48000,
,,,-00.000000034100,  -2.48000,
,,,-00.000000034000,  -2.48000,
,,,-00.000000033900,  -2.48000,
,,,-00.000000033800,  -2.48000,
,,,-00.000000033700,  -2.48000,
,,,-00.000000033600,  -2.48000,
,,,-00.000000033500,  -2.48000,
,,,-00.000000033400,  -2.48000,
,,,-00.000000033300,  -2.48000,
,,,-00.000000033200,  -2.48000,
,,,-00.000000033100,  -2.48000,
,,,-00.000000033000,  -2.48000,
,,,-00.000000032900,  -2.48000,
,,,-00.000000032800,  -2.48000,
,,,-00.000000032700,  -2.48000,
,,,-00.000000032600,  -2.48000,
,,,-00.000000032500,  -2.48000,
,,,-00.000000032400,  -2.48000,
,,,-00.000000032300,  -2.48000,
,,,-00.000000032200,  -2.48000,
,,,-00.000000032100,  -2.48000,
,,,-00.000000032000,  -2.48000,
,,,-00.000000031900,  -2.48000,
,,,-00.000000031800,  -2.48000,
,,,-00.000000031700,  -2.48000,
,,,-00.000000031600,  -2.48000,
,,,-00.000000031500,  -2.48000,
,,,-00.000000031400,  -2.48000,
,,,-00.000000031300,  -2.48000,
,,,-00.000000031200,  -2.48000,
,,,-00.000000031100,  -2.48000,
,,,-00.000000031000,  -2.48000,
,,,-00.000000030900,  -2.48000,
,,,-00.000000030800,  -2.48000,
,,,-00.000000030700,  -2.48000,
,,,-00.000000030600,  -2.48000,
,,,-00.000000030500,  -2.48000,
,,,-00.000000030400,  -2.48000,
,,,-00.000000030300,  -2.48000,
,,,-00.000000030200,  -2.48000,
,,,-00.000000030100,  -2.48000,
,,,-00.000000030000,  -2.48000,
,,,-00.000000029900,  -2.48000,
,,,-00.000000029800,  -2.48000,
,,,-00.000000029700,  -2.48000,
,,,-00.000000029600,  -2.48000,
,,,-00.000000029500,  -2.48000,
,,,-00.000000029400,  -2.48000,
,,,-00.000000029300,  -2.48000,
,,,-00.000000029200,  -2.48000,
,,,-00.000000029100,  -2.48000,
,,,-00.000000029000,  -2.48000,
,,,-00.000000028900,  -2.48000,
,,,-00.000000028800,  -2.48000,
,,,-00.000000028700,  -2.48000,
,,,-00.000000028600,  -2.48000,
,,,-00.000000028500,  -2.48000,
,,,-00.000000028400,  -2.48000,
,,,-00.000000028300,  -2.48000,
,,,-00.000000028200,  -2.48000,
,,,-00.000000028100,  -2.48000,
,,,-00.000000028000,  -2.48000,
,,,-00.000000027900,  -2.48000,
,,,-00.000000027800,  -2.48000,
,,,-00.000000027700,  -2.48000,
,,,-00.000000027600,  -2.48000,
,,,-00.000000027500,  -2.48000,
,,,-00.000000027400,  -2.48000,
,,,-00.000000027300,  -2.48000,
,,,-00.000000027200,  -2.48000,
,,,-00.000000027100,  -2.48000,
,,,-00.000000027000,  -2.48000,
,,,-00.000000026900,  -2.48000,
,,,-00.000000026800,  -2.48000,
,,,-00.000000026700,  -2.48000,
,,,-00.000000026600,  -2.48000,
,,,-00.000000026500,  -2.48000,
,,,-00.000000026400,  -2.44000,
,,,-00.000000026300,  -2.44000,
,,,-00.000000026200,  -2.48000,
,,,-00.000000026100,  -2.48000,
,,,-00.000000026000,  -2.48000,
,,,-00.000000025900,  -2.48000,
,,,-00.000000025800,  -2.44000,
,,,-00.000000025700,  -2.48000,
,,,-00.000000025600,  -2.48000,
,,,-00.000000025500,  -2.48000,
,,,-00.000000025400,  -2.48000,
,,,-00.000000025300,  -2.48000,
,,,-00.000000025200,  -2.48000,
,,,-00.000000025100,  -2.44000,
,,,-00.000000025000,  -2.44000,
,,,-00.000000024900,  -2.44000,
,,,-00.000000024800,  -2.44000,
,,,-00.000000024700,  -2.48000,
,,,-00.000000024600,  -2.48000,
,,,-00.000000024500,  -2.48000,
,,,-00.000000024400,  -2.48000,
,,,-00.000000024300,  -2.48000,
,,,-00.000000024200,  -2.44000,
,,,-00.000000024100,  -2.44000,
,,,-00.000000024000,  -2.44000,
,,,-00.000000023900,  -2.44000,
,,,-00.000000023800,  -2.44000,
,,,-00.000000023700,  -2.44000,
,,,-00.000000023600,  -2.44000,
,,,-00.000000023500,  -2.44000,
,,,-00.000000023400,  -2.44000,
,,,-00.000000023300,  -2.44000,
,,,-00.000000023200,  -2.44000,
,,,-00.000000023100,  -2.44000,
,,,-00.000000023000,  -2.44000,
,,,-00.000000022900,  -2.44000,
,,,-00.000000022800,  -2.40000,
,,,-00.000000022700,  -2.40000,
,,,-00.000000022600,  -2.40000,
,,,-00.000000022500,  -2.40000,
,,,-00.000000022400,  -2.40000,
,,,-00.000000022300,  -2.40000,
,,,-00.000000022200,  -2.40000,
,,,-00.000000022100,  -2.40000,
,,,-00.000000022000,  -2.40000,
,,,-00.000000021900,  -2.40000,
,,,-00.000000021800,  -2.40000,
,,,-00.000000021700,  -2.36000,
,,,-00.000000021600,  -2.36000,
,,,-00.000000021500,  -2.36000,
,,,-00.000000021400,  -2.36000,
,,,-00.000000021300,  -2.36000,
,,,-00.000000021200,  -2.36000,
,,,-00.000000021100,  -2.36000,
,,,-00.000000021000,  -2.32000,
,,,-00.000000020900,  -2.32000,
,,,-00.000000020800,  -2.32000,
,,,-00.000000020700,  -2.32000,
,,,-00.000000020600,  -2.32000,
,,,-00.000000020500,  -2.32000,
,,,-00.000000020400,  -2.32000,
,,,-00.000000020300,  -2.28000,
,,,-00.000000020200,  -2.28000,
,,,-00.000000020100,  -2.28000,
,,,-00.000000020000,  -2.28000,
,,,-00.000000019900,  -2.24000,
,,,-00.000000019800,  -2.24000,
,,,-00.000000019700,  -2.24000,
,,,-00.000000019600,  -2.24000,
,,,-00.000000019500,  -2.20000,
,,,-00.000000019400,  -2.20000,
,,,-00.000000019300,  -2.20000,
,,,-00.000000019200,  -2.20000,
,,,-00.000000019100,  -2.16000,
,,,-00.000000019000,  -2.16000,
,,,-00.000000018900,  -2.16000,
,,,-00.000000018800,  -2.12000,
,,,-00.000000018700,  -2.12000,
,,,-00.000000018600,  -2.12000,
,,,-00.000000018500,  -2.08000,
,,,-00.000000018400,  -2.08000,
,,,-00.000000018300,  -2.08000,
,,,-00.000000018200,  -2.04000,
,,,-00.000000018100,  -2.04000,
,,,-00.000000018000,  -2.00000,
,,,-00.000000017900,  -2.00000,
,,,-00.000000017800,  -2.00000,
,,,-00.000000017700,  -1.96000,
,,,-00.000000017600,  -1.96000,
,,,-00.000000017500,  -1.92000,
,,,-00.000000017400,  -1.92000,
,,,-00.000000017300,  -1.88000,
,,,-00.000000017200,  -1.88000,
,,,-00.000000017100,  -1.84000,
,,,-00.000000017000,  -1.84000,
,,,-00.000000016900,  -1.80000,
,,,-00.000000016800,  -1.80000,
,,,-00.000000016700,  -1.76000,
,,,-00.000000016600,  -1.76000,
,,,-00.000000016500,  -1.72000,
,,,-00.000000016400,  -1.72000,
,,,-00.000000016300,  -1.68000,
,,,-00.000000016200,  -1.68000,
,,,-00.000000016100,  -1.64000,
,,,-00.000000016000,  -1.64000,
,,,-00.000000015900,  -1.60000,
,,,-00.000000015800,  -1.56000,
,,,-00.000000015700,  -1.56000,
,,,-00.000000015600,  -1.52000,
,,,-00.000000015500,  -1.52000,
,,,-00.000000015400,  -1.48000,
,,,-00.000000015300,  -1.44000,
,,,-00.000000015200,  -1.44000,
,,,-00.000000015100,  -1.40000,
,,,-00.000000015000,  -1.36000,
,,,-00.000000014900,  -1.36000,
,,,-00.000000014800,  -1.32000,
,,,-00.000000014700,  -1.28000,
,,,-00.000000014600,  -1.24000,
,,,-00.000000014500,  -1.24000,
,,,-00.000000014400,  -1.20000,
,,,-00.000000014300,  -1.16000,
,,,-00.000000014200,  -1.12000,
,,,-00.000000014100,  -1.08000,
,,,-00.000000014000,  -1.08000,
,,,-00.000000013900,  -1.04000,
,,,-00.000000013800,  -1.00000,
,,,-00.000000013700,  -0.96000,
,,,-00.000000013600,  -0.92000,
,,,-00.000000013500,  -0.92000,
,,,-00.000000013400,  -0.88000,
,,,-00.000000013300,  -0.84000,
,,,-00.000000013200,  -0.80000,
,,,-00.000000013100,  -0.76000,
,,,-00.000000013000,  -0.72000,
,,,-00.000000012900,  -0.68000,
,,,-00.000000012800,  -0.68000,
,,,-00.000000012700,  -0.64000,
,,,-00.000000012600,  -0.60000,
,,,-00.000000012500,  -0.56000,
,,,-00.000000012400,  -0.52000,
,,,-00.000000012300,  -0.48000,
,,,-00.000000012200,  -0.44000,
,,,-00.000000012100,  -0.40000,
,,,-00.000000012000,  -0.36000,
,,,-00.000000011900,  -0.32000,
,,,-00.000000011800,  -0.32000,
,,,-00.000000011700,  -0.28000,
,,,-00.000000011600,  -0.24000,
,,,-00.000000011500,  -0.20000,
,,,-00.000000011400,  -0.16000,
,,,-00.000000011300,  -0.12000,
,,,-00.000000011200,  -0.08000,
,,,-00.000000011100,  -0.04000,
,,,-00.000000011000,   0.00000,
,,,-00.000000010900,   0.04000,
,,,-00.000000010800,   0.08000,
,,,-00.000000010700,   0.12000,
,,,-00.000000010600,   0.16000,
,,,-00.000000010500,   0.20000,
,,,-00.000000010400,   0.24000,
,,,-00.000000010300,   0.28000,
,,,-00.000000010200,   0.32000,
,,,-00.000000010100,   0.36000,
,,,-00.000000010000,   0.40000,
,,,-00.000000009900,   0.44000,
,,,-00.000000009800,   0.44000,
,,,-00.000000009700,   0.48000,
,,,-00.000000009600,   0.52000,
,,,-00.000000009500,   0.56000,
,,,-00.000000009400,   0.60000,
,,,-00.000000009300,   0.64000,
,,,-00.000000009200,   0.68000,
,,,-00.000000009100,   0.72000,
,,,-00.000000009000,   0.76000,
,,,-00.000000008900,   0.80000,
,,,-00.000000008800,   0.84000,
,,,-00.000000008700,   0.88000,
,,,-00.000000008600,   0.92000,
,,,-00.000000008500,   0.92000,
,,,-00.000000008400,   0.96000,
,,,-00.000000008300,   1.00000,
,,,-00.000000008200,   1.04000,
,,,-00.000000008100,   1.08000,
,,,-00.000000008000,   1.12000,
,,,-00.000000007900,   1.16000,
,,,-00.000000007800,   1.20000,
,,,-00.000000007700,   1.24000,
,,,-00.000000007600,   1.24000,
,,,-00.000000007500,   1.28000,
,,,-00.000000007400,   1.32000,
,,,-00.000000007300,   1.36000,
,,,-00.000000007200,   1.40000,
,,,-00.000000007100,   1.44000,
,,,-00.000000007000,   1.44000,
,,,-00.000000006900,   1.48000,
,,,-00.000000006800,   1.52000,
,,,-00.000000006700,   1.56000,
,,,-00.000000006600,   1.60000,
,,,-00.000000006500,   1.64000,
,,,-00.000000006400,   1.64000,
,,,-00.000000006300,   1.68000,
,,,-00.000000006200,   1.72000,
,,,-00.000000006100,   1.76000,
,,,-00.000000006000,   1.80000,
,,,-00.000000005900,   1.80000,
,,,-00.000000005800,   1.84000,
,,,-00.000000005700,   1.88000,
,,,-00.000000005600,   1.88000,
,,,-00.000000005500,   1.92000,
,,,-00.000000005400,   1.96000,
,,,-00.000000005300,   2.00000,
,,,-00.000000005200,   2.00000,
,,,-00.000000005100,   2.04000,
,,,-00.000000005000,   2.08000,
,,,-00.000000004900,   2.08000,
,,,-00.000000004800,   2.12000,
,,,-00.000000004700,   2.16000,
,,,-00.000000004600,   2.16000,
,,,-00.000000004500,   2.20000,
,,,-00.000000004400,   2.20000,
,,,-00.000000004300,   2.24000,
,,,-00.000000004200,   2.28000,
,,,-00.000000004100,   2.28000,
,,,-00.000000004000,   2.32000,
,,,-00.000000003900,   2.32000,
,,,-00.000000003800,   2.36000,
,,,-00.000000003700,   2.36000,
